mc16_13TeV:mc16_13TeV.301488.MadGraphPythia8EvtGen_A14NNPDF23LO_RS_G_hh_bbbb_c10_M300.deriv.DAOD_FTAG5.e3820_s3126_s3136_r9364_r9315_p3452
mc16_13TeV:mc16_13TeV.301489.MadGraphPythia8EvtGen_A14NNPDF23LO_RS_G_hh_bbbb_c10_M400.deriv.DAOD_FTAG5.e3820_s3126_r9364_r9315_p3452
mc16_13TeV:mc16_13TeV.301490.MadGraphPythia8EvtGen_A14NNPDF23LO_RS_G_hh_bbbb_c10_M500.deriv.DAOD_FTAG5.e3820_s3126_r9364_r9315_p3452
mc16_13TeV:mc16_13TeV.301491.MadGraphPythia8EvtGen_A14NNPDF23LO_RS_G_hh_bbbb_c10_M600.deriv.DAOD_FTAG5.e3820_s3126_s3136_r9364_r9315_p3452
mc16_13TeV:mc16_13TeV.301492.MadGraphPythia8EvtGen_A14NNPDF23LO_RS_G_hh_bbbb_c10_M700.deriv.DAOD_FTAG5.e3820_s3126_s3136_r9364_r9315_p3452
mc16_13TeV:mc16_13TeV.301493.MadGraphPythia8EvtGen_A14NNPDF23LO_RS_G_hh_bbbb_c10_M800.deriv.DAOD_FTAG5.e3820_s3126_r9364_r9315_p3452
mc16_13TeV:mc16_13TeV.301494.MadGraphPythia8EvtGen_A14NNPDF23LO_RS_G_hh_bbbb_c10_M900.deriv.DAOD_FTAG5.e3820_s3126_s3136_r9364_r9315_p3452
mc16_13TeV:mc16_13TeV.301495.MadGraphPythia8EvtGen_A14NNPDF23LO_RS_G_hh_bbbb_c10_M1000.deriv.DAOD_FTAG5.e3820_s3126_r9364_r9315_p3452
mc16_13TeV:mc16_13TeV.301496.MadGraphPythia8EvtGen_A14NNPDF23LO_RS_G_hh_bbbb_c10_M1100.deriv.DAOD_FTAG5.e3820_s3126_s3136_r9364_r9315_p3452
mc16_13TeV:mc16_13TeV.301497.MadGraphPythia8EvtGen_A14NNPDF23LO_RS_G_hh_bbbb_c10_M1200.deriv.DAOD_FTAG5.e3820_s3126_r9364_r9315_p3452
mc16_13TeV:mc16_13TeV.301498.MadGraphPythia8EvtGen_A14NNPDF23LO_RS_G_hh_bbbb_c10_M1300.deriv.DAOD_FTAG5.e3820_s3126_s3136_r9364_r9315_p3452
mc16_13TeV:mc16_13TeV.301499.MadGraphPythia8EvtGen_A14NNPDF23LO_RS_G_hh_bbbb_c10_M1400.deriv.DAOD_FTAG5.e3820_s3126_s3136_r9364_r9315_p3452
mc16_13TeV:mc16_13TeV.301500.MadGraphPythia8EvtGen_A14NNPDF23LO_RS_G_hh_bbbb_c10_M1500.deriv.DAOD_FTAG5.e3820_s3126_s3136_r9364_r9315_p3452
mc16_13TeV:mc16_13TeV.301501.MadGraphPythia8EvtGen_A14NNPDF23LO_RS_G_hh_bbbb_c10_M1600.deriv.DAOD_FTAG5.e3820_s3126_r9364_r9315_p3452
mc16_13TeV:mc16_13TeV.301502.MadGraphPythia8EvtGen_A14NNPDF23LO_RS_G_hh_bbbb_c10_M1800.deriv.DAOD_FTAG5.e3820_s3126_s3136_r9364_r9315_p3452
mc16_13TeV:mc16_13TeV.301503.MadGraphPythia8EvtGen_A14NNPDF23LO_RS_G_hh_bbbb_c10_M2000.deriv.DAOD_FTAG5.e3820_s3126_r9364_r9315_p3452
mc16_13TeV:mc16_13TeV.301504.MadGraphPythia8EvtGen_A14NNPDF23LO_RS_G_hh_bbbb_c10_M2250.deriv.DAOD_FTAG5.e3820_s3126_s3136_r9364_r9315_p3452
mc16_13TeV:mc16_13TeV.301505.MadGraphPythia8EvtGen_A14NNPDF23LO_RS_G_hh_bbbb_c10_M2500.deriv.DAOD_FTAG5.e3820_s3126_r9364_r9315_p3452
mc16_13TeV:mc16_13TeV.301506.MadGraphPythia8EvtGen_A14NNPDF23LO_RS_G_hh_bbbb_c10_M2750.deriv.DAOD_FTAG5.e3820_s3126_s3136_r9364_r9315_p3452
mc16_13TeV:mc16_13TeV.301507.MadGraphPythia8EvtGen_A14NNPDF23LO_RS_G_hh_bbbb_c10_M3000.deriv.DAOD_FTAG5.e3820_s3126_r9364_r9315_p3452
