{
    "jet_collection": "AntiKt4EMPFlowJets_BTagging201903",
    "jet_calibration_collection": "AntiKt4EMPFlow",
    "jet_calib_file": "JES_data2017_2016_2015_Consolidated_PFlow_2018_Rel21.config",
    "cal_seq": "JetArea_Residual_EtaJES_GSC_Smear",
    "cal_area": "00-04-82",
    "do_calibration": "true",
    "run_augmenters": "false",
    "vr_cuts": "false",
    "jvt_cut": 0.5,
    "pt_cut": 20000,
    "n_tracks_to_save": 40,
    "track_sort_order": "d0_significance",
    "track_pt_minimum": 1000,
    "track_d0_maximum": 1,
    "track_z0_maximum": 1.5,
    "dl2_configs": [],
    "variables": {
        "btag": {
            "file": "single-btag-variables.json",
            "floats": []
        },
        "track": {
            "file": "single-btag-track-variables.json"
        }
    }
}
