mc16_13TeV:mc16_13TeV.361024.Pythia8EvtGen_A14NNPDF23LO_jetjet_JZ4W.deriv.DAOD_FTAG5.e3668_s3126_r10201_p3870
mc16_13TeV:mc16_13TeV.301504.MadGraphPythia8EvtGen_A14NNPDF23LO_RS_G_hh_bbbb_c10_M2250.deriv.DAOD_FTAG5.e3820_s3126_r10201_p3870
mc16_13TeV:mc16_13TeV.301276.Pythia8EvtGen_A14NNPDF23LO_Wprime_WZqqqq_m2900.deriv.DAOD_FTAG5.e3743_s3126_r10201_p3870
mc16_13TeV:mc16_13TeV.301257.Pythia8EvtGen_A14NNPDF23LO_Wprime_WZqqqq_m1000.deriv.DAOD_FTAG5.e3749_s3126_r10201_p3870
